…
As we discussed in class, the correct shape depends on what you want to
do with the data. Use `pivot_longer()` to make the data frame longer, in
a way that makes sense. ANSWER: we want to make a long dataframe of all
questions and answers here.

``` r
long_format_data <- clean_data |>
  select("ResponseId","Q4", "Q5", "Q6","Q7", "Q8", "Q9", "Q10", "Q11") |>
  pivot_longer(cols = c("Q4", "Q5", "Q6","Q7", "Q8", "Q9", "Q10", "Q11"), names_to = "Question_number", values_to = "grade")

print(long_format_data)
```

    # A tibble: 128 × 3
       ResponseId        Question_number grade
       <chr>             <chr>           <int>
     1 R_2b14qToYhcmCVFD Q4                  1
     2 R_2b14qToYhcmCVFD Q5                  2
     3 R_2b14qToYhcmCVFD Q6                  4
     4 R_2b14qToYhcmCVFD Q7                  5
     5 R_2b14qToYhcmCVFD Q8                  5
     6 R_2b14qToYhcmCVFD Q9                  4
     7 R_2b14qToYhcmCVFD Q10                 4
     8 R_2b14qToYhcmCVFD Q11                 4
     9 R_2eVcizz1gWXK4gd Q4                  1
    10 R_2eVcizz1gWXK4gd Q5                  2
    # ℹ 118 more rows
…
